333491.096559,4700462.870915,19T,2,07
333491.096559,4700462.870915,19T,2,07
333491.100974,4700463.055988,19T,2,07
333491.100974,4700463.055988,19T,2,07
333491.100974,4700463.055988,19T,2,07
333491.100974,4700463.055988,19T,2,07
333491.100974,4700463.055988,19T,2,07
333491.100974,4700463.055988,19T,2,07
333491.100974,4700463.055988,19T,2,07
333491.100974,4700463.055988,19T,2,07
333491.100974,4700463.055988,19T,2,07
333491.100974,4700463.055988,19T,2,07
333491.100974,4700463.055988,19T,2,07
333491.100974,4700463.055988,19T,2,07
333491.100974,4700463.055988,19T,2,07
333491.100974,4700463.055988,19T,2,07
333491.100974,4700463.055988,19T,2,07
333491.100974,4700463.055988,19T,2,07
333491.100974,4700463.055988,19T,2,07
333491.100974,4700463.055988,19T,2,07
333491.100974,4700463.055988,19T,2,07
333491.100974,4700463.055988,19T,2,07
333491.100974,4700463.055988,19T,2,07
333491.100974,4700463.055988,19T,2,07
333491.100974,4700463.055988,19T,2,07
333491.100974,4700463.055988,19T,2,07
333491.100974,4700463.055988,19T,2,07
333491.100974,4700463.055988,19T,2,07
333491.100974,4700463.055988,19T,2,07
333491.100974,4700463.055988,19T,2,07
333491.100974,4700463.055988,19T,2,07
333491.100974,4700463.055988,19T,2,07
333491.096559,4700462.870915,19T,2,07
333491.096559,4700462.870915,19T,2,07
333491.096559,4700462.870915,19T,2,07
333491.096559,4700462.870915,19T,2,07
333491.096559,4700462.870915,19T,2,07
333491.096559,4700462.870915,19T,2,07
333491.233644,4700462.867645,19T,2,07
333491.233644,4700462.867645,19T,2,07
333491.233644,4700462.867645,19T,2,07
333491.233644,4700462.867645,19T,2,07
333491.233644,4700462.867645,19T,2,07
333491.233644,4700462.867645,19T,2,07
333491.233644,4700462.867645,19T,2,07
333491.233644,4700462.867645,19T,2,07
333491.233644,4700462.867645,19T,2,07
333491.233644,4700462.867645,19T,2,07
333491.233644,4700462.867645,19T,2,07
333491.233644,4700462.867645,19T,2,07
333491.233644,4700462.867645,19T,2,07
333491.233644,4700462.867645,19T,2,07
333491.233644,4700462.867645,19T,2,07
333491.233644,4700462.867645,19T,2,07
333491.233644,4700462.867645,19T,2,07
333491.233644,4700462.867645,19T,2,04
333491.233644,4700462.867645,19T,2,04
333491.233644,4700462.867645,19T,2,07
333491.229230,4700462.682573,19T,2,07
333491.366315,4700462.679303,19T,2,07
333491.498986,4700462.490960,19T,2,07
333491.498986,4700462.490960,19T,2,07
333491.498986,4700462.490960,19T,2,07
333491.498986,4700462.490960,19T,2,07
333491.494571,4700462.305887,19T,2,07
333491.494571,4700462.305887,19T,2,07
333491.631656,4700462.302617,19T,2,07
333491.631656,4700462.302617,19T,2,07
333491.631656,4700462.302617,19T,2,07
333491.631656,4700462.302617,19T,2,07
333491.631656,4700462.302617,19T,2,07
333491.631656,4700462.302617,19T,2,07
333491.631656,4700462.302617,19T,2,07
333491.631656,4700462.302617,19T,2,07
333491.764327,4700462.114275,19T,2,07
333491.764327,4700462.114275,19T,2,07
333491.764327,4700462.114275,19T,2,07
333491.764327,4700462.114275,19T,2,07
333491.764327,4700462.114275,19T,2,07
333491.764327,4700462.114275,19T,2,07
333491.764327,4700462.114275,19T,2,07
333491.764327,4700462.114275,19T,2,07
333491.759912,4700461.929202,19T,2,07
333491.759912,4700461.929202,19T,2,07
333491.759912,4700461.929202,19T,2,07
333491.759912,4700461.929202,19T,2,07
333491.896997,4700461.925932,19T,2,07
333491.896997,4700461.925932,19T,2,07
333491.896997,4700461.925932,19T,2,07
333491.896997,4700461.925932,19T,2,07
333491.896997,4700461.925932,19T,2,07
333491.896997,4700461.925932,19T,2,07
333491.896997,4700461.925932,19T,2,07
333491.896997,4700461.925932,19T,2,07
333491.896997,4700461.925932,19T,2,07
333491.896997,4700461.925932,19T,2,07
333491.896997,4700461.925932,19T,2,07
333491.896997,4700461.925932,19T,2,07
333491.896997,4700461.925932,19T,2,07
333491.896997,4700461.925932,19T,2,07
333491.896997,4700461.925932,19T,2,07
333491.896997,4700461.925932,19T,2,07
333491.892583,4700461.740859,19T,2,07
333491.892583,4700461.740859,19T,2,07
333491.892583,4700461.740859,19T,2,07
333491.892583,4700461.740859,19T,2,07
333491.892583,4700461.740859,19T,2,07
333492.029668,4700461.737589,19T,2,07
333492.029668,4700461.737589,19T,2,07
333492.029668,4700461.737589,19T,2,07
333492.029668,4700461.737589,19T,1,07
333492.029668,4700461.737589,19T,1,07
333492.029668,4700461.737589,19T,1,07
333492.029668,4700461.737589,19T,1,07
333492.029668,4700461.737589,19T,1,07
333492.029668,4700461.737589,19T,1,07
333492.025254,4700461.552516,19T,2,07
333492.025254,4700461.552516,19T,2,07
333492.025254,4700461.552516,19T,2,07
333492.025254,4700461.552516,19T,2,07
333492.025254,4700461.552516,19T,2,07
333492.025254,4700461.552516,19T,2,07
333492.025254,4700461.552516,19T,2,07
333492.025254,4700461.552516,19T,2,07
333492.025254,4700461.552516,19T,2,07
333492.025254,4700461.552516,19T,2,07
333492.162339,4700461.549246,19T,2,07
333492.162339,4700461.549246,19T,2,07
333492.162339,4700461.549246,19T,2,07
333492.162339,4700461.549246,19T,2,07
333492.162339,4700461.549246,19T,2,07
333492.162339,4700461.549246,19T,2,07
333492.162339,4700461.549246,19T,2,07
333492.157924,4700461.364174,19T,2,07
333492.157924,4700461.364174,19T,2,06
333492.157924,4700461.364174,19T,2,07
333492.157924,4700461.364174,19T,2,07
333492.157924,4700461.364174,19T,2,07
333492.157924,4700461.364174,19T,2,07
333492.157924,4700461.364174,19T,2,07
333492.157924,4700461.364174,19T,2,07
333492.157924,4700461.364174,19T,2,07
333492.157924,4700461.364174,19T,1,07
333492.157924,4700461.364174,19T,1,07
333492.157924,4700461.364174,19T,1,07
333492.157924,4700461.364174,19T,1,07
333492.157924,4700461.364174,19T,2,04
333492.157924,4700461.364174,19T,2,04
333492.157924,4700461.364174,19T,2,04
333492.157924,4700461.364174,19T,2,04
333492.157924,4700461.364174,19T,2,04
333492.157924,4700461.364174,19T,2,04
333492.153510,4700461.179101,19T,2,04
333492.153510,4700461.179101,19T,2,07
333492.153510,4700461.179101,19T,2,07
333492.153510,4700461.179101,19T,2,07
333492.149095,4700460.994028,19T,2,07
333492.149095,4700460.994028,19T,2,07
333492.286180,4700460.990758,19T,2,07
333492.286180,4700460.990758,19T,2,07
333492.286180,4700460.990758,19T,2,07
333492.281766,4700460.805685,19T,2,07
333492.281766,4700460.805685,19T,2,07
333492.281766,4700460.805685,19T,2,07
333492.281766,4700460.805685,19T,2,07
333492.281766,4700460.805685,19T,2,07
333492.277351,4700460.620613,19T,2,07
333492.277351,4700460.620613,19T,2,07
333492.277351,4700460.620613,19T,2,07
333492.277351,4700460.620613,19T,2,07
333492.277351,4700460.620613,19T,2,07
333492.277351,4700460.620613,19T,2,07
333492.277351,4700460.620613,19T,2,07
333492.277351,4700460.620613,19T,2,07
333492.277351,4700460.620613,19T,2,07
333492.272937,4700460.435540,19T,2,07
333492.272937,4700460.435540,19T,2,07
333492.272937,4700460.435540,19T,2,07
333492.272937,4700460.435540,19T,2,07
333492.272937,4700460.435540,19T,2,07
333492.272937,4700460.435540,19T,2,07
333492.272937,4700460.435540,19T,2,07
333492.272937,4700460.435540,19T,2,07
333492.272937,4700460.435540,19T,2,07
333492.272937,4700460.435540,19T,2,07
333492.272937,4700460.435540,19T,2,07
333492.272937,4700460.435540,19T,2,07
333492.272937,4700460.435540,19T,2,07
333492.272937,4700460.435540,19T,2,07
333492.272937,4700460.435540,19T,2,07
333492.272937,4700460.435540,19T,2,07
333492.272937,4700460.435540,19T,2,07
333492.272937,4700460.435540,19T,2,07
333492.272937,4700460.435540,19T,2,07
333492.272937,4700460.435540,19T,2,07
333492.272937,4700460.435540,19T,2,07
333492.272937,4700460.435540,19T,2,07
333492.272937,4700460.435540,19T,2,07
333492.272937,4700460.435540,19T,2,07
333492.272937,4700460.435540,19T,2,07
333492.272937,4700460.435540,19T,2,07
333492.272937,4700460.435540,19T,2,07
333492.272937,4700460.435540,19T,2,07
333492.268522,4700460.250467,19T,2,07
333492.268522,4700460.250467,19T,2,07
333492.405608,4700460.247197,19T,2,07
333492.405608,4700460.247197,19T,2,07
333492.405608,4700460.247197,19T,2,07
333492.405608,4700460.247197,19T,2,07
333492.405608,4700460.247197,19T,2,07
333492.405608,4700460.247197,19T,2,07
333492.401193,4700460.062124,19T,2,07
333492.401193,4700460.062124,19T,2,07
333492.401193,4700460.062124,19T,2,07
333492.401193,4700460.062124,19T,2,07
333492.401193,4700460.062124,19T,2,07
333492.396778,4700459.877051,19T,2,07
333492.396778,4700459.877051,19T,2,07
333492.396778,4700459.877051,19T,2,07
333492.396778,4700459.877051,19T,2,07
333492.396778,4700459.877051,19T,2,07
333492.392364,4700459.691979,19T,2,07
333492.255279,4700459.695249,19T,2,07
333492.255279,4700459.695249,19T,2,07
333492.255279,4700459.695249,19T,2,07
333492.255279,4700459.695249,19T,2,07
333492.255279,4700459.695249,19T,2,07
333492.255279,4700459.695249,19T,2,07
333492.255279,4700459.695249,19T,2,07
333492.255279,4700459.695249,19T,2,07
333492.255279,4700459.695249,19T,2,07
333492.255279,4700459.695249,19T,2,07
333492.255279,4700459.695249,19T,2,07
333492.250864,4700459.510176,19T,2,07
333492.250864,4700459.510176,19T,2,07
333492.250864,4700459.510176,19T,2,07
333492.387949,4700459.506906,19T,2,07
333492.387949,4700459.506906,19T,2,07
333492.387949,4700459.506906,19T,2,07
333492.387949,4700459.506906,19T,2,07
333492.387949,4700459.506906,19T,2,07
333492.387949,4700459.506906,19T,2,07
333492.387949,4700459.506906,19T,2,07
333492.387949,4700459.506906,19T,2,07
333492.387949,4700459.506906,19T,2,07
333492.387949,4700459.506906,19T,2,07
333492.387949,4700459.506906,19T,2,07
333492.387949,4700459.506906,19T,2,07
333492.387949,4700459.506906,19T,2,07
333492.387949,4700459.506906,19T,2,07
333492.387949,4700459.506906,19T,2,07
333492.387949,4700459.506906,19T,2,07
333492.387949,4700459.506906,19T,2,07
333492.387949,4700459.506906,19T,2,07
333492.387949,4700459.506906,19T,2,07
333492.387949,4700459.506906,19T,2,07
333492.387949,4700459.506906,19T,2,07
333492.387949,4700459.506906,19T,2,07
333492.387949,4700459.506906,19T,2,07
333492.383535,4700459.321833,19T,2,07
333492.653291,4700459.130220,19T,2,07
333492.653291,4700459.130220,19T,2,07
333492.653291,4700459.130220,19T,2,07
333492.653291,4700459.130220,19T,2,07
333492.648876,4700458.945148,19T,2,07
333492.648876,4700458.945148,19T,2,07
333492.648876,4700458.945148,19T,2,07
333492.648876,4700458.945148,19T,2,07
333492.648876,4700458.945148,19T,2,07
333492.648876,4700458.945148,19T,2,07
333492.648876,4700458.945148,19T,2,07
333492.648876,4700458.945148,19T,2,07
333492.648876,4700458.945148,19T,2,07
333492.644462,4700458.760075,19T,2,07
333492.644462,4700458.760075,19T,2,07
333492.781547,4700458.756805,19T,2,07
333492.781547,4700458.756805,19T,2,07
333492.781547,4700458.756805,19T,2,07
333492.781547,4700458.756805,19T,2,07
333492.644462,4700458.760075,19T,2,07
333492.644462,4700458.760075,19T,2,07
333492.644462,4700458.760075,19T,2,07
333492.644462,4700458.760075,19T,2,07
333492.644462,4700458.760075,19T,2,07
333492.644462,4700458.760075,19T,2,07
333492.644462,4700458.760075,19T,2,07
333492.644462,4700458.760075,19T,2,07
333492.644462,4700458.760075,19T,2,07
333492.644462,4700458.760075,19T,2,07
333492.644462,4700458.760075,19T,2,07
333492.644462,4700458.760075,19T,2,07
333492.644462,4700458.760075,19T,2,07
333492.640047,4700458.575002,19T,2,07
333492.640047,4700458.575002,19T,2,07
333492.640047,4700458.575002,19T,2,07
333492.640047,4700458.575002,19T,2,07
333492.640047,4700458.575002,19T,2,07
333492.640047,4700458.575002,19T,2,07
333492.640047,4700458.575002,19T,2,07
333492.640047,4700458.575002,19T,2,07
333492.640047,4700458.575002,19T,2,07
333492.640047,4700458.575002,19T,2,07
333492.640047,4700458.575002,19T,2,07
333492.640047,4700458.575002,19T,2,07
333492.640047,4700458.575002,19T,2,07
333492.635633,4700458.389929,19T,2,07
333492.635633,4700458.389929,19T,2,07
333492.635633,4700458.389929,19T,2,07
333492.635633,4700458.389929,19T,2,07
333492.631218,4700458.204856,19T,2,07
333492.631218,4700458.204856,19T,2,07
333492.631218,4700458.204856,19T,2,07
333492.631218,4700458.204856,19T,2,07
333492.631218,4700458.204856,19T,2,07
333492.626804,4700458.019784,19T,2,07
333492.489718,4700458.023054,19T,2,07
333492.489718,4700458.023054,19T,2,07
333492.489718,4700458.023054,19T,2,07
333492.489718,4700458.023054,19T,2,07
333492.485304,4700457.837981,19T,2,07
333492.485304,4700457.837981,19T,2,07
333492.485304,4700457.837981,19T,2,07
333492.485304,4700457.837981,19T,2,07
333492.485304,4700457.837981,19T,2,07
333492.485304,4700457.837981,19T,2,07
333492.485304,4700457.837981,19T,2,07
333492.485304,4700457.837981,19T,2,07
333492.485304,4700457.837981,19T,2,07
333492.485304,4700457.837981,19T,2,07
333492.485304,4700457.837981,19T,2,07
333492.485304,4700457.837981,19T,2,07
333492.485304,4700457.837981,19T,2,07
333492.485304,4700457.837981,19T,2,07
333492.485304,4700457.837981,19T,2,07
333492.485304,4700457.837981,19T,2,07
333492.485304,4700457.837981,19T,2,07
333492.485304,4700457.837981,19T,2,07
333492.485304,4700457.837981,19T,2,07
333492.485304,4700457.837981,19T,2,07
333492.485304,4700457.837981,19T,2,07
333492.485304,4700457.837981,19T,2,07
333492.485304,4700457.837981,19T,2,07
333492.480889,4700457.652908,19T,2,07
333492.480889,4700457.652908,19T,2,07
333492.480889,4700457.652908,19T,2,07
333492.480889,4700457.652908,19T,2,07
333492.480889,4700457.652908,19T,2,07
333492.480889,4700457.652908,19T,2,07
333492.480889,4700457.652908,19T,2,07
333492.480889,4700457.652908,19T,2,07
333492.480889,4700457.652908,19T,2,07
333492.480889,4700457.652908,19T,2,07
333492.480889,4700457.652908,19T,2,07
333492.476475,4700457.467835,19T,2,07
333492.476475,4700457.467835,19T,2,07
333492.476475,4700457.467835,19T,2,07
333492.476475,4700457.467835,19T,2,07
333492.476475,4700457.467835,19T,2,07
333492.472060,4700457.282762,19T,2,07
333492.609146,4700457.279492,19T,2,07
333492.609146,4700457.279492,19T,2,07
333492.609146,4700457.279492,19T,2,07
333492.609146,4700457.279492,19T,2,07
333492.609146,4700457.279492,19T,2,07
333492.604731,4700457.094420,19T,2,07
333492.741816,4700457.091150,19T,2,07
333492.741816,4700457.091150,19T,2,07
333492.741816,4700457.091150,19T,2,07
333492.741816,4700457.091150,19T,2,07
333492.741816,4700457.091150,19T,2,07
333492.741816,4700457.091150,19T,2,07
333492.741816,4700457.091150,19T,2,07
333492.741816,4700457.091150,19T,2,07
333492.741816,4700457.091150,19T,2,07
333492.741816,4700457.091150,19T,2,07
333492.741816,4700457.091150,19T,2,07
333492.741816,4700457.091150,19T,2,07
333492.741816,4700457.091150,19T,2,07
333492.737402,4700456.906077,19T,2,07
333492.737402,4700456.906077,19T,2,07
333492.737402,4700456.906077,19T,2,07
333492.737402,4700456.906077,19T,2,07
333492.737402,4700456.906077,19T,2,07
333492.737402,4700456.906077,19T,2,07
333492.737402,4700456.906077,19T,2,07
333492.737402,4700456.906077,19T,2,07
333492.737402,4700456.906077,19T,2,07
333492.737402,4700456.906077,19T,2,07
333492.737402,4700456.906077,19T,2,07
333492.737402,4700456.906077,19T,2,07
333492.737402,4700456.906077,19T,2,07
333492.737402,4700456.906077,19T,2,07
333492.732987,4700456.721004,19T,2,07
333492.732987,4700456.721004,19T,2,07
333492.732987,4700456.721004,19T,2,07
333492.732987,4700456.721004,19T,2,07
333492.732987,4700456.721004,19T,2,07
333492.732987,4700456.721004,19T,2,07
333492.732987,4700456.721004,19T,2,07
333492.732987,4700456.721004,19T,2,07
333492.732987,4700456.721004,19T,2,07
333492.732987,4700456.721004,19T,2,07
333492.732987,4700456.721004,19T,2,07
333492.732987,4700456.721004,19T,2,07
333492.728573,4700456.535931,19T,2,07
333492.728573,4700456.535931,19T,2,07
333492.454402,4700456.542471,19T,2,07
333492.454402,4700456.542471,19T,2,07
333492.449988,4700456.357398,19T,2,07
333492.449988,4700456.357398,19T,2,07
333492.449988,4700456.357398,19T,2,07
333492.449988,4700456.357398,19T,2,07
333492.449988,4700456.357398,19T,2,07
333492.449988,4700456.357398,19T,2,07
333492.449988,4700456.357398,19T,2,07
333492.449988,4700456.357398,19T,2,07
333492.449988,4700456.357398,19T,2,07
333492.449988,4700456.357398,19T,2,07
333492.449988,4700456.357398,19T,2,07
333492.449988,4700456.357398,19T,2,07
333492.449988,4700456.357398,19T,2,07
333492.449988,4700456.357398,19T,2,07
333492.445573,4700456.172326,19T,2,07
333492.445573,4700456.172326,19T,2,07
333492.308488,4700456.175595,19T,2,07
333492.308488,4700456.175595,19T,2,07
333492.308488,4700456.175595,19T,2,07
333492.308488,4700456.175595,19T,2,07
333492.308488,4700456.175595,19T,2,07
333492.308488,4700456.175595,19T,2,07
333492.308488,4700456.175595,19T,2,07
333492.308488,4700456.175595,19T,2,07
333492.308488,4700456.175595,19T,2,07
333492.308488,4700456.175595,19T,2,07
333492.308488,4700456.175595,19T,2,07
333492.308488,4700456.175595,19T,2,07
333492.308488,4700456.175595,19T,2,07
333492.308488,4700456.175595,19T,2,07
333492.308488,4700456.175595,19T,2,07
333492.308488,4700456.175595,19T,2,07
333492.308488,4700456.175595,19T,2,07
333492.308488,4700456.175595,19T,2,07
333492.308488,4700456.175595,19T,2,07
333492.308488,4700456.175595,19T,2,07
333492.308488,4700456.175595,19T,2,07
333492.304073,4700455.990523,19T,2,07
333492.304073,4700455.990523,19T,2,07
333492.304073,4700455.990523,19T,2,07
333492.304073,4700455.990523,19T,2,07
333492.304073,4700455.990523,19T,2,07
333492.304073,4700455.990523,19T,2,07
333492.304073,4700455.990523,19T,2,07
333492.304073,4700455.990523,19T,2,07
333492.304073,4700455.990523,19T,2,07
333492.304073,4700455.990523,19T,2,07
333492.166988,4700455.993792,19T,2,07
333492.166988,4700455.993792,19T,2,07
333492.166988,4700455.993792,19T,2,07
333492.166988,4700455.993792,19T,2,07
333492.166988,4700455.993792,19T,2,07
333492.166988,4700455.993792,19T,2,07
333492.166988,4700455.993792,19T,2,07
333492.166988,4700455.993792,19T,2,07
333492.166988,4700455.993792,19T,2,07
333492.166988,4700455.993792,19T,2,07
333492.162573,4700455.808720,19T,2,07
333492.162573,4700455.808720,19T,2,07
333492.162573,4700455.808720,19T,2,07
333492.162573,4700455.808720,19T,2,07
333492.162573,4700455.808720,19T,2,07
333492.162573,4700455.808720,19T,2,07
333492.162573,4700455.808720,19T,2,07
333492.162573,4700455.808720,19T,2,07
333492.162573,4700455.808720,19T,2,07
333492.162573,4700455.808720,19T,2,07
333492.162573,4700455.808720,19T,2,07
333492.162573,4700455.808720,19T,2,07
333492.162573,4700455.808720,19T,2,07
333492.162573,4700455.808720,19T,2,07
333492.162573,4700455.808720,19T,2,07
333492.162573,4700455.808720,19T,2,07
333492.162573,4700455.808720,19T,2,07
333492.162573,4700455.808720,19T,2,07
333492.162573,4700455.808720,19T,2,07
333492.162573,4700455.808720,19T,2,07
333492.162573,4700455.808720,19T,2,07
333492.162573,4700455.808720,19T,2,07
333492.162573,4700455.808720,19T,2,07
333492.162573,4700455.808720,19T,2,07
333492.162573,4700455.808720,19T,2,07
333492.162573,4700455.808720,19T,2,07
333492.162573,4700455.808720,19T,2,07
333492.025488,4700455.811990,19T,2,07
333492.025488,4700455.811990,19T,2,07
333492.025488,4700455.811990,19T,2,07
333492.021073,4700455.626917,19T,2,07
333492.021073,4700455.626917,19T,2,07
333492.021073,4700455.626917,19T,2,07
333492.021073,4700455.626917,19T,2,07
333492.021073,4700455.626917,19T,2,07
333492.021073,4700455.626917,19T,2,07
333492.021073,4700455.626917,19T,2,07
333492.021073,4700455.626917,19T,2,07
333492.021073,4700455.626917,19T,2,07
333492.021073,4700455.626917,19T,2,07
333492.021073,4700455.626917,19T,2,07
333492.021073,4700455.626917,19T,2,07
333492.021073,4700455.626917,19T,2,07
333492.021073,4700455.626917,19T,2,07
333492.021073,4700455.626917,19T,2,07
333492.021073,4700455.626917,19T,2,07
333492.021073,4700455.626917,19T,2,07
333492.021073,4700455.626917,19T,2,07
333492.021073,4700455.626917,19T,2,07
333492.021073,4700455.626917,19T,2,07
333492.021073,4700455.626917,19T,2,07
333492.021073,4700455.626917,19T,2,07
333492.021073,4700455.626917,19T,2,07
333492.021073,4700455.626917,19T,2,07
333492.021073,4700455.626917,19T,2,07
333492.021073,4700455.626917,19T,2,07
333492.021073,4700455.626917,19T,2,07
333492.016659,4700455.441844,19T,2,07
333492.016659,4700455.441844,19T,2,07
333492.016659,4700455.441844,19T,2,07
333492.016659,4700455.441844,19T,2,07
333492.016659,4700455.441844,19T,2,07
333492.016659,4700455.441844,19T,2,07
333492.016659,4700455.441844,19T,2,07
333492.016659,4700455.441844,19T,2,07
333492.016659,4700455.441844,19T,2,07
333492.016659,4700455.441844,19T,2,07
333492.016659,4700455.441844,19T,2,07
333492.016659,4700455.441844,19T,2,07
333492.016659,4700455.441844,19T,2,07
333492.016659,4700455.441844,19T,2,07
333492.016659,4700455.441844,19T,2,07
333492.016659,4700455.441844,19T,2,07
333492.016659,4700455.441844,19T,2,07
333492.016659,4700455.441844,19T,2,07
333492.016659,4700455.441844,19T,2,07
333492.016659,4700455.441844,19T,2,07
333492.016659,4700455.441844,19T,2,07
333492.016659,4700455.441844,19T,2,07
333492.016659,4700455.441844,19T,2,07
333492.016659,4700455.441844,19T,2,07
333492.016659,4700455.441844,19T,2,07
333492.016659,4700455.441844,19T,2,07
333492.016659,4700455.441844,19T,2,07
333492.016659,4700455.441844,19T,2,07
333492.016659,4700455.441844,19T,2,07
333492.016659,4700455.441844,19T,2,07
333492.016659,4700455.441844,19T,2,07
333492.016659,4700455.441844,19T,2,07
333492.016659,4700455.441844,19T,2,07
333492.016659,4700455.441844,19T,2,07
333492.016659,4700455.441844,19T,2,07
333492.016659,4700455.441844,19T,2,07
333492.016659,4700455.441844,19T,2,07
333492.016659,4700455.441844,19T,2,07
333492.016659,4700455.441844,19T,2,07
333492.016659,4700455.441844,19T,2,07
333492.016659,4700455.441844,19T,2,07
333492.016659,4700455.441844,19T,2,07
333492.016659,4700455.441844,19T,2,07
333492.016659,4700455.441844,19T,2,07
333492.016659,4700455.441844,19T,2,07
333492.016659,4700455.441844,19T,2,07
333492.016659,4700455.441844,19T,2,07
333492.016659,4700455.441844,19T,2,07
333492.016659,4700455.441844,19T,2,07
333492.016659,4700455.441844,19T,2,07
333492.016659,4700455.441844,19T,2,07
333492.016659,4700455.441844,19T,2,07
333492.016659,4700455.441844,19T,2,07
333491.879574,4700455.445114,19T,2,07
333491.879574,4700455.445114,19T,2,07
333491.879574,4700455.445114,19T,2,07
333491.879574,4700455.445114,19T,2,07
333491.879574,4700455.445114,19T,2,07
333491.879574,4700455.445114,19T,2,07
333491.879574,4700455.445114,19T,2,07
333491.879574,4700455.445114,19T,2,07
333491.879574,4700455.445114,19T,2,07
333491.879574,4700455.445114,19T,2,07
333491.879574,4700455.445114,19T,2,07
333491.879574,4700455.445114,19T,2,07
333491.879574,4700455.445114,19T,2,07
333491.879574,4700455.445114,19T,2,07
333491.879574,4700455.445114,19T,2,07
333491.879574,4700455.445114,19T,2,07
333491.879574,4700455.445114,19T,2,07
333491.879574,4700455.445114,19T,2,07
333491.879574,4700455.445114,19T,2,07
333491.879574,4700455.445114,19T,2,07
333491.879574,4700455.445114,19T,2,07
333491.879574,4700455.445114,19T,2,07
333491.879574,4700455.445114,19T,2,07
333491.879574,4700455.445114,19T,2,07
333491.879574,4700455.445114,19T,2,07
333491.879574,4700455.445114,19T,2,07
333491.879574,4700455.445114,19T,2,04
333491.879574,4700455.445114,19T,2,04
333491.879574,4700455.445114,19T,2,04
333491.879574,4700455.445114,19T,2,04
333491.879574,4700455.445114,19T,2,04
333491.879574,4700455.445114,19T,2,04
333491.879574,4700455.445114,19T,2,04
333491.879574,4700455.445114,19T,2,04
333491.879574,4700455.445114,19T,2,04
333491.879574,4700455.445114,19T,2,04
333491.879574,4700455.445114,19T,2,04
333491.879574,4700455.445114,19T,2,04
333491.879574,4700455.445114,19T,2,04
333491.879574,4700455.445114,19T,2,04
333491.879574,4700455.445114,19T,2,04
333491.879574,4700455.445114,19T,2,04
333491.879574,4700455.445114,19T,2,04
333491.879574,4700455.445114,19T,2,04
333491.879574,4700455.445114,19T,2,04
333491.879574,4700455.445114,19T,2,04
333491.879574,4700455.445114,19T,2,04
333491.879574,4700455.445114,19T,2,04
333491.879574,4700455.445114,19T,2,04
333491.879574,4700455.445114,19T,2,04
333491.879574,4700455.445114,19T,2,04
333491.879574,4700455.445114,19T,2,04
333491.879574,4700455.445114,19T,2,04
333491.879574,4700455.445114,19T,2,04
333491.879574,4700455.445114,19T,2,04
333491.879574,4700455.445114,19T,2,04
333491.879574,4700455.445114,19T,2,04
333491.609817,4700455.636726,19T,2,04
333491.609817,4700455.636726,19T,2,04
333491.609817,4700455.636726,19T,2,04
333491.609817,4700455.636726,19T,2,04
333491.609817,4700455.636726,19T,2,04
333491.609817,4700455.636726,19T,1,07
